[
  {
    "id": 1,
    "root_id": 0,
    "parent_id": null,
    "order": 0,
    "category": "component",
    "class": "Application",
    "label": "Application principale",
    "fields_values": null,
    "styles": null,
    "user_id": "1",
    "group_id": "test",
    "rights": "740"
  },
  {
    "id": 2,
    "root_id": 1,
    "parent_id": 1,
    "order": 0,
    "category": "component",
    "class": "Library",
    "label": "Bibliothèque",
    "fields_values": null,
    "styles": null,
    "user_id": "1",
    "group_id": "test",
    "rights": "740"
  },
  {
    "id": 3,
    "root_id": 2,
    "parent_id": 2,
    "order": 0,
    "category": "component",
    "class": "Columns",
    "label": "Bloc 1 colonne",
    "fields_values": null,
    "styles": null,
    "user_id": "1",
    "group_id": "test",
    "rights": "740"
  },
  {
    "id": 5,
    "root_id": 2,
    "parent_id": 3,
    "order": 0,
    "category": "component",
    "class": "Column",
    "label": null,
    "fields_values": null,
    "styles": "{\"width\":\"100%\"}",
    "user_id": "1",
    "group_id": "test",
    "rights": "740"
  },
  {
    "id": 6,
    "root_id": 2,
    "parent_id": 2,
    "order": 1,
    "category": "component",
    "class": "Columns",
    "label": "Bloc 2 colonnes",
    "fields_values": null,
    "styles": null,
    "user_id": "1",
    "group_id": "test",
    "rights": "740"
  },
  {
    "id": 7,
    "root_id": 2,
    "parent_id": 6,
    "order": 0,
    "category": "component",
    "class": "Column",
    "label": null,
    "fields_values": null,
    "styles": "{\"width\":\"50%\"}",
    "user_id": "1",
    "group_id": "test",
    "rights": "740"
  },
  {
    "id": 8,
    "root_id": 2,
    "parent_id": 6,
    "order": 1,
    "category": "component",
    "class": "Column",
    "label": null,
    "fields_values": null,
    "styles": "{\"width\":\"50%\"}",
    "user_id": "1",
    "group_id": "test",
    "rights": "740"
  },
  {
    "id": 9,
    "root_id": 2,
    "parent_id": 2,
    "order": 2,
    "category": "component",
    "class": "Columns",
    "label": "Bloc 3 colonnes",
    "fields_values": null,
    "styles": null,
    "user_id": "1",
    "group_id": "test",
    "rights": "740"
  },
  {
    "id": 10,
    "root_id": 2,
    "parent_id": 9,
    "order": 0,
    "category": "component",
    "class": "Column",
    "label": null,
    "fields_values": null,
    "styles": "{\"width\":\"33.333333333%\"}",
    "user_id": "1",
    "group_id": "test",
    "rights": "740"
  },
  {
    "id": 11,
    "root_id": 2,
    "parent_id": 9,
    "order": 1,
    "category": "component",
    "class": "Column",
    "label": null,
    "fields_values": null,
    "styles": "{\"width\":\"33.333333333%\"}",
    "user_id": "1",
    "group_id": "test",
    "rights": "740"
  },
  {
    "id": 12,
    "root_id": 2,
    "parent_id": 9,
    "order": 2,
    "category": "component",
    "class": "Column",
    "label": null,
    "fields_values": null,
    "styles": "{\"width\":\"33.333333333%\"}",
    "user_id": "1",
    "group_id": "test",
    "rights": "740"
  },
  {
    "id": 13,
    "root_id": 2,
    "parent_id": 2,
    "order": 3,
    "category": "component",
    "class": "Columns",
    "label": "Bloc 4 colonnes",
    "fields_values": null,
    "styles": null,
    "user_id": "1",
    "group_id": "test",
    "rights": "740"
  },
  {
    "id": 14,
    "root_id": 2,
    "parent_id": 13,
    "order": 0,
    "category": "component",
    "class": "Column",
    "label": null,
    "fields_values": null,
    "styles": "{\"width\":\"25%\"}",
    "user_id": "1",
    "group_id": "test",
    "rights": "740"
  },
  {
    "id": 15,
    "root_id": 2,
    "parent_id": 13,
    "order": 1,
    "category": "component",
    "class": "Column",
    "label": null,
    "fields_values": null,
    "styles": "{\"width\":\"25%\"}",
    "user_id": "1",
    "group_id": "test",
    "rights": "740"
  },
  {
    "id": 16,
    "root_id": 2,
    "parent_id": 13,
    "order": 2,
    "category": "component",
    "class": "Column",
    "label": null,
    "fields_values": null,
    "styles": "{\"width\":\"25%\"}",
    "user_id": "1",
    "group_id": "test",
    "rights": "740"
  },
  {
    "id": 17,
    "root_id": 2,
    "parent_id": 13,
    "order": 3,
    "category": "component",
    "class": "Column",
    "label": null,
    "fields_values": null,
    "styles": "{\"width\":\"25%\"}",
    "user_id": "1",
    "group_id": "test",
    "rights": "740"
  },
  {
    "id": 18,
    "root_id": 2,
    "parent_id": 2,
    "order": 4,
    "category": "component",
    "class": "Article",
    "label": "Article ",
    "fields_values": "{\"title\":\"Titre par d\\u00e9faut\",\"chapeau\":\"Chapeau par d\\u00e9faut\",\"content\":\"Contenu par <b>d\\u00e9faut<\\/b>.\",\"created_at\":\"2017-01-01\"}",
    "styles": null,
    "user_id": "1",
    "group_id": "test",
    "rights": "740"
  },
  {
    "id": 19,
    "root_id": 2,
    "parent_id": 2,
    "order": 4,
    "category": "component",
    "class": "Test",
    "label": "Test",
    "fields_values": null,
    "styles": null,
    "user_id": "1",
    "group_id": "test",
    "rights": "740"
  },
  {
    "id": 30,
    "root_id": 1,
    "parent_id": 1,
    "order": 0,
    "category": "component",
    "class": "Page",
    "label": "Page index",
    "fields_values": null,
    "styles": null,
    "user_id": "1",
    "group_id": "test",
    "rights": "740"
  },
  {
    "id": 31,
    "root_id": 1,
    "parent_id": 30,
    "order": 0,
    "category": "component",
    "class": "Columns",
    "label": "Bloc 4 colonnes",
    "fields_values": null,
    "styles": null,
    "user_id": "1",
    "group_id": "test",
    "rights": "740"
  },
  {
    "id": 32,
    "root_id": 1,
    "parent_id": 31,
    "order": 0,
    "category": "component",
    "class": "Column",
    "label": null,
    "fields_values": null,
    "styles": "{\"width\":\"25%\"}",
    "user_id": "1",
    "group_id": "test",
    "rights": "740"
  },
  {
    "id": 33,
    "root_id": 1,
    "parent_id": 31,
    "order": 1,
    "category": "component",
    "class": "Column",
    "label": null,
    "fields_values": null,
    "styles": "{\"width\":\"25%\"}",
    "user_id": "1",
    "group_id": "test",
    "rights": "740"
  },
  {
    "id": 34,
    "root_id": 1,
    "parent_id": 31,
    "order": 2,
    "category": "component",
    "class": "Column",
    "label": null,
    "fields_values": null,
    "styles": "{\"width\":\"25%\"}",
    "user_id": "1",
    "group_id": "test",
    "rights": "740"
  },
  {
    "id": 35,
    "root_id": 1,
    "parent_id": 31,
    "order": 3,
    "category": "component",
    "class": "Column",
    "label": null,
    "fields_values": null,
    "styles": "{\"width\":\"25%\"}",
    "user_id": "1",
    "group_id": "test",
    "rights": "740"
  },
  {
    "id": 36,
    "root_id": 1,
    "parent_id": 32,
    "order": 0,
    "category": "component",
    "class": "Article",
    "label": "Article ",
    "fields_values": "{\"title\":\"Article #36\",\"title_tag\":\"h1\",\"chapeau\":\"Chapeau par d\\u00e9faut\",\"content\":\"<p>Contenu par <b>d&eacute;faut<\\/b>.<\\/p>\",\"created_at\":\"2017-03-22\",\"tag\":\"article\",\"__reflection\":{\"fields\":{\"title\":{\"class\":\"FieldText\"},\"title_tag\":{\"class\":\"FieldList\"},\"acme\":{\"class\":\"FieldSeparator\"},\"chapeau\":{\"class\":\"FieldText\"},\"content\":{\"class\":\"FieldRichTextTinyMce\"},\"illustration_image\":{\"class\":\"FieldImage\"},\"other_images\":{\"class\":\"FieldImage\"},\"created_at\":{\"class\":\"FieldDate\"},\"tag\":{\"class\":\"FieldText\"}}}}",
    "styles": null,
    "user_id": "1",
    "group_id": "test",
    "rights": "740"
  },
  {
    "id": 37,
    "root_id": 1,
    "parent_id": 33,
    "order": 0,
    "category": "component",
    "class": "Article",
    "label": "Article ",
    "fields_values": "{\"title\":\"Article #37\",\"title_tag\":\"h4\",\"chapeau\":\"Chapeau par d\\u00e9faut\",\"content\":\"Contenu par <b>d\\u00e9faut<\\/b>.\",\"created_at\":\"2017-01-01\"}",
    "styles": null,
    "user_id": "1",
    "group_id": "test",
    "rights": "740"
  },
  {
    "id": 38,
    "root_id": 1,
    "parent_id": 34,
    "order": 0,
    "category": "component",
    "class": "Article",
    "label": "Article ",
    "fields_values": "{\"title\":\"Article #38\",\"chapeau\":\"Chapeau par d\\u00e9faut\",\"content\":\"Contenu par <b>d\\u00e9faut<\\/b>.\",\"created_at\":\"2017-01-01\"}",
    "styles": null,
    "user_id": "1",
    "group_id": "test",
    "rights": "740"
  },
  {
    "id": 39,
    "root_id": 1,
    "parent_id": 35,
    "order": 0,
    "category": "component",
    "class": "Article",
    "label": "Article ",
    "fields_values": "{\"title\":\"Article #39\",\"chapeau\":\"Chapeau par d\\u00e9faut\",\"content\":\"Contenu par <b>d\\u00e9faut<\\/b>.\",\"created_at\":\"2017-01-01\"}",
    "styles": null,
    "user_id": "1",
    "group_id": "test",
    "rights": "740"
  },
  {
    "id": 116,
    "root_id": 1,
    "parent_id": 30,
    "order": 1,
    "category": "component",
    "class": "Columns",
    "label": "Bloc 2 colonnes",
    "fields_values": null,
    "styles": null,
    "user_id": "1",
    "group_id": "test",
    "rights": "740"
  },
  {
    "id": 117,
    "root_id": 1,
    "parent_id": 116,
    "order": 0,
    "category": "component",
    "class": "Column",
    "label": null,
    "fields_values": null,
    "styles": "{\"width\":\"75%\"}",
    "user_id": "1",
    "group_id": "test",
    "rights": "740"
  },
  {
    "id": 118,
    "root_id": 1,
    "parent_id": 116,
    "order": 1,
    "category": "component",
    "class": "Column",
    "label": null,
    "fields_values": null,
    "styles": "{\"width\":\"25%\"}",
    "user_id": "1",
    "group_id": "test",
    "rights": "740"
  },
  {
    "id": 123,
    "root_id": 1,
    "parent_id": 118,
    "order": 1,
    "category": "component",
    "class": "Article",
    "label": "Article ",
    "fields_values": "{\"title\":\"Article #123\",\"chapeau\":\"Chapeau par d\\u00e9faut\",\"content\":\"Contenu par <b>d\\u00e9faut<\\/b>.\",\"image\":\"\",\"created_at\":\"2017-03-22\"}",
    "styles": null,
    "user_id": "1",
    "group_id": "test",
    "rights": "740"
  },
  {
    "id": 128,
    "root_id": 1,
    "parent_id": 126,
    "order": 0,
    "category": "component",
    "class": "Article",
    "label": "Article ",
    "fields_values": "{\"title\":\"Titre par d\\u00e9faut\",\"chapeau\":\"Chapeau par d\\u00e9faut\",\"content\":\"Contenu par <b>d\\u00e9faut<\\/b>.\",\"created_at\":\"2017-01-01\"}",
    "styles": null,
    "user_id": "1",
    "group_id": "test",
    "rights": "740"
  },
  {
    "id": 132,
    "root_id": 1,
    "parent_id": 125,
    "order": 0,
    "category": "component",
    "class": "Columns",
    "label": "Bloc 2 colonnes",
    "fields_values": null,
    "styles": null,
    "user_id": "1",
    "group_id": "test",
    "rights": "740"
  },
  {
    "id": 133,
    "root_id": 1,
    "parent_id": 132,
    "order": 0,
    "category": "component",
    "class": "Column",
    "label": null,
    "fields_values": null,
    "styles": "{\"width\":\"50%\"}",
    "user_id": "1",
    "group_id": "test",
    "rights": "740"
  },
  {
    "id": 134,
    "root_id": 1,
    "parent_id": 132,
    "order": 1,
    "category": "component",
    "class": "Column",
    "label": null,
    "fields_values": null,
    "styles": "{\"width\":\"50%\"}",
    "user_id": "1",
    "group_id": "test",
    "rights": "740"
  },
  {
    "id": 137,
    "root_id": 2,
    "parent_id": 2,
    "order": null,
    "category": "medias_container",
    "class": null,
    "label": null,
    "fields_values": "{\"path\":\"\"}",
    "styles": null,
    "user_id": "1",
    "group_id": "test",
    "rights": "740"
  },
  {
    "id": 139,
    "root_id": 2,
    "parent_id": 137,
    "order": null,
    "category": "medias_container_for_uploads",
    "class": null,
    "label": "Mes envois",
    "fields_values": "{\"path\":\"\\/Mes envois\"}",
    "styles": null,
    "user_id": "1",
    "group_id": "test",
    "rights": "740"
  },
  {
    "id": 144,
    "root_id": 1,
    "parent_id": 35,
    "order": 1,
    "category": "component",
    "class": "Columns",
    "label": "Bloc 2 colonnes",
    "fields_values": null,
    "styles": null,
    "user_id": "1",
    "group_id": "test",
    "rights": "740"
  },
  {
    "id": 145,
    "root_id": 1,
    "parent_id": 144,
    "order": 0,
    "category": "component",
    "class": "Column",
    "label": null,
    "fields_values": null,
    "styles": "{\"width\":\"50%\"}",
    "user_id": "1",
    "group_id": "test",
    "rights": "740"
  },
  {
    "id": 146,
    "root_id": 1,
    "parent_id": 144,
    "order": 1,
    "category": "component",
    "class": "Column",
    "label": null,
    "fields_values": null,
    "styles": "{\"width\":\"50%\"}",
    "user_id": "1",
    "group_id": "test",
    "rights": "740"
  },
  {
    "id": 597,
    "root_id": 1,
    "parent_id": 117,
    "order": 0,
    "category": "component",
    "class": "Test",
    "label": "Test",
    "fields_values": "{\"test_contenu\":\"<p>abcdeffazeeee<\\/p>\",\"test_contenu_2\":\"<p>def<\\/p>\",\"test_fichier\":[],\"test_fichier_2\":[],\"test_links\":[{\"url\":\"https:\\/\\/google.fr\",\"label\":\"Google\",\"target_blank\":\"on\"}],\"test_links_2\":[{\"url\":\"https:\\/\\/google.fr\",\"label\":\"Google 1\"},{\"url\":\"https:\\/\\/google.fr\",\"label\":\"Google 2\",\"target_blank\":\"on\"},{\"url\":\"https:\\/\\/google.fr\",\"label\":\"Google 3\",\"target_blank\":\"on\"}],\"test_list\":\"value1\",\"test_checkbox_1\":\"on\",\"test_checkbox_2\":\"on\",\"test_checkboxes_1\":\"on\",\"test_checkboxes_2\":\"on\",\"__reflection\":{\"fields\":{\"test_contenu\":{\"class\":\"FieldRichTextTinyMce\"},\"test_contenu_2\":{\"class\":\"FieldRichTextTinyMce\"},\"test_image\":{\"class\":\"FieldImage\"},\"test_fichier\":{\"class\":\"FieldFile\"},\"test_fichier_2\":{\"class\":\"FieldFile\"},\"test_links\":{\"class\":\"FieldLinks\"},\"test_links_2\":{\"class\":\"FieldLinks\"},\"test_list\":{\"class\":\"FieldList\"},\"test_checkbox_1\":{\"class\":\"FieldCheckbox\"},\"test_checkbox_2\":{\"class\":\"FieldCheckbox\"},\"test_checkboxes\":{\"class\":\"FieldCheckboxes\"}}}}",
    "styles": null,
    "user_id": "1",
    "group_id": "test",
    "rights": "740"
  }
]
